[
    {
        "id": "1",
        "clientName":"Continental Inc FR",
        "earliestDeadLine":"20/05/2014",
        "dataType": "Client",
        "earliestUpload": "02/05/2014",
        "technician": "Technician",
        "controller": "Controller"
    },
    {
        "id": "2",
        "clientName":"Continental Inc UK", 
        "earliestDeadLine":"20/05/2014",
        "dataType": "Client",
        "earliestUpload": "02/05/2014",
        "technician": "Technician",
        "controller": "Controller"
    },
    {
        "id": "3",
        "clientName":"Continental Inc ES", 
        "earliestDeadLine":"20/05/2014",
        "dataType": "Client",
        "earliestUpload": "02/05/2014",
        "technician": "Technician",
        "controller": "Controller"
    },
    {
        "id": "4",
        "clientName":"Continental Inc ES", 
        "earliestDeadLine":"20/05/2014",
        "dataType": "Client",
        "earliestUpload": "02/05/2014",
        "technician": "Technician",
        "controller": "Controller"
    },
    {
        "id": "5",
        "clientName":"Continental Inc ES", 
        "earliestDeadLine":"20/05/2014",
        "dataType": "Client",
        "earliestUpload": "02/05/2014",
        "technician": "Technician",
        "controller": "Controller"
    },
    {
        "id": "6",
        "clientName":"Continental Inc DE", 
        "earliestDeadLine":"20/05/2014",
        "dataType": "Client",
        "earliestUpload": "02/05/2014",
        "technician": "Technician",
        "controller": "Controller"
    },
    {
        "id": "7",
        "clientName":"Continental Inc DE", 
        "earliestDeadLine":"20/05/2014",
        "dataType": "Client",
        "earliestUpload": "02/05/2014",
        "technician": "Technician",
        "controller": "Controller"
    },
    {
        "id": "8",
        "clientName":"Continental Inc FR",
        "earliestDeadLine":"20/05/2014",
        "dataType": "Client",
        "earliestUpload": "02/05/2014",
        "technician": "Technician",
        "controller": "Controller"
    },
    {
        "id": "9",
        "clientName":"Continental Inc UK", 
        "earliestDeadLine":"20/05/2014",
        "dataType": "Client",
        "earliestUpload": "02/05/2014",
        "technician": "Technician",
        "controller": "Controller"
    },
    {
        "id": "10",
        "clientName":"Continental Inc ES", 
        "earliestDeadLine":"20/05/2014",
        "dataType": "Client",
        "earliestUpload": "02/05/2014",
        "technician": "Technician",
        "controller": "Controller"
    },
    {
        "id": "11",
        "clientName":"Continental Inc ES", 
        "earliestDeadLine":"20/05/2014",
        "dataType": "Client",
        "earliestUpload": "02/05/2014",
        "technician": "Technician",
        "controller": "Controller"
    },
    {
        "id": "12",
        "clientName":"Continental Inc ES", 
        "earliestDeadLine":"20/05/2014",
        "dataType": "Client",
        "earliestUpload": "02/05/2014",
        "technician": "Technician",
        "controller": "Controller"
    },
    {
        "id": "13",
        "clientName":"Continental Inc DE", 
        "earliestDeadLine":"20/05/2014",
        "dataType": "Client",
        "earliestUpload": "02/05/2014",
        "technician": "Technician",
        "controller": "Controller"
    },
    {
        "id": "14",
        "clientName":"Continental Inc DE", 
        "earliestDeadLine":"20/05/2014",
        "dataType": "Client",
        "earliestUpload": "02/05/2014",
        "technician": "Technician",
        "controller": "Controller"
    },
    {
        "id": "15",
        "clientName":"Continental Inc FR",
        "earliestDeadLine":"20/05/2014",
        "dataType": "Client",
        "earliestUpload": "02/05/2014",
        "technician": "Technician",
        "controller": "Controller"
    },
    {
        "id": "16",
        "clientName":"Continental Inc UK", 
        "earliestDeadLine":"20/05/2014",
        "dataType": "Client",
        "earliestUpload": "02/05/2014",
        "technician": "Technician",
        "controller": "Controller"
    },
    {
        "id": "17",
        "clientName":"Continental Inc ES", 
        "earliestDeadLine":"20/05/2014",
        "dataType": "Client",
        "earliestUpload": "02/05/2014",
        "technician": "Technician",
        "controller": "Controller"
    },
    {
        "id": "18",
        "clientName":"Continental Inc ES", 
        "earliestDeadLine":"20/05/2014",
        "dataType": "Client",
        "earliestUpload": "02/05/2014",
        "technician": "Technician",
        "controller": "Controller"
    },
    {
        "id": "19",
        "clientName":"Continental Inc ES", 
        "earliestDeadLine":"20/05/2014",
        "dataType": "Client",
        "earliestUpload": "02/05/2014",
        "technician": "Technician",
        "controller": "Controller"
    },
    {
        "id": "20",
        "clientName":"Continental Inc DE", 
        "earliestDeadLine":"20/05/2014",
        "dataType": "Client",
        "earliestUpload": "02/05/2014",
        "technician": "Technician",
        "controller": "Controller"
    },
    {
        "id": "21",
        "clientName":"Continental Inc DE", 
        "earliestDeadLine":"20/05/2014",
        "dataType": "Client",
        "earliestUpload": "02/05/2014",
        "technician": "Technician",
        "controller": "Controller"
    },
    {
        "id": "22",
        "clientName":"Continental Inc FR",
        "earliestDeadLine":"20/05/2014",
        "dataType": "Client",
        "earliestUpload": "02/05/2014",
        "technician": "Technician",
        "controller": "Controller"
    },
    {
        "id": "23",
        "clientName":"Continental Inc UK", 
        "earliestDeadLine":"20/05/2014",
        "dataType": "Client",
        "earliestUpload": "02/05/2014",
        "technician": "Technician",
        "controller": "Controller"
    },
    {
        "id": "24",
        "clientName":"Continental Inc ES", 
        "earliestDeadLine":"20/05/2014",
        "dataType": "Client",
        "earliestUpload": "02/05/2014",
        "technician": "Technician",
        "controller": "Controller"
    },
    {
        "id": "25",
        "clientName":"Continental Inc ES", 
        "earliestDeadLine":"20/05/2014",
        "dataType": "Client",
        "earliestUpload": "02/05/2014",
        "technician": "Technician",
        "controller": "Controller"
    },
    {
        "id": "26",
        "clientName":"Continental Inc ES", 
        "earliestDeadLine":"20/05/2014",
        "dataType": "Client",
        "earliestUpload": "02/05/2014",
        "technician": "Technician",
        "controller": "Controller"
    },
    {
        "id": "27",
        "clientName":"Continental Inc DE", 
        "earliestDeadLine":"20/05/2014",
        "dataType": "Client",
        "earliestUpload": "02/05/2014",
        "technician": "Technician",
        "controller": "Controller"
    },
    {
        "id": "28",
        "clientName":"Continental Inc DE", 
        "earliestDeadLine":"20/05/2014",
        "dataType": "Client",
        "earliestUpload": "02/05/2014",
        "technician": "Technician",
        "controller": "Controller"
    }
]